info face=early34suddenfel,Medium size=16 bold=0 italic=0 charset="" unicode=1 stretchH=100 smooth=0 aa=1 padding=0,0,0,0 spacing=1,1
common lineHeight=15 base=12 scaleW=1024 scaleH=1024 pages=1 packed=0
page id=0 file=early34-suddenfell_00.png
chars count=87
char id=33 x=483 y=0 width=4 height=7 xoffset=-2 yoffset=6 xadvance=2 page=0 chnl=0
char id=34 x=534 y=0 width=6 height=5 xoffset=-2 yoffset=6 xadvance=4 page=0 chnl=0
char id=39 x=554 y=0 width=4 height=5 xoffset=-2 yoffset=6 xadvance=2 page=0 chnl=0
char id=40 x=28 y=0 width=5 height=8 xoffset=-2 yoffset=6 xadvance=3 page=0 chnl=0
char id=41 x=34 y=0 width=5 height=8 xoffset=-2 yoffset=6 xadvance=3 page=0 chnl=0
char id=42 x=578 y=0 width=4 height=4 xoffset=-2 yoffset=6 xadvance=2 page=0 chnl=0
char id=43 x=503 y=0 width=6 height=6 xoffset=-2 yoffset=7 xadvance=4 page=0 chnl=0
char id=44 x=559 y=0 width=4 height=5 xoffset=-2 yoffset=9 xadvance=2 page=0 chnl=0
char id=45 x=564 y=0 width=6 height=4 xoffset=-2 yoffset=8 xadvance=4 page=0 chnl=0
char id=46 x=583 y=0 width=4 height=4 xoffset=-2 yoffset=9 xadvance=2 page=0 chnl=0
char id=47 x=471 y=0 width=5 height=7 xoffset=-2 yoffset=6 xadvance=3 page=0 chnl=0
char id=48 x=93 y=0 width=6 height=7 xoffset=-2 yoffset=6 xadvance=4 page=0 chnl=0
char id=49 x=477 y=0 width=5 height=7 xoffset=-2 yoffset=6 xadvance=3 page=0 chnl=0
char id=50 x=100 y=0 width=6 height=7 xoffset=-2 yoffset=6 xadvance=4 page=0 chnl=0
char id=51 x=107 y=0 width=6 height=7 xoffset=-2 yoffset=6 xadvance=4 page=0 chnl=0
char id=52 x=114 y=0 width=6 height=7 xoffset=-2 yoffset=6 xadvance=4 page=0 chnl=0
char id=53 x=121 y=0 width=6 height=7 xoffset=-2 yoffset=6 xadvance=4 page=0 chnl=0
char id=54 x=128 y=0 width=6 height=7 xoffset=-2 yoffset=6 xadvance=4 page=0 chnl=0
char id=55 x=135 y=0 width=6 height=7 xoffset=-2 yoffset=6 xadvance=4 page=0 chnl=0
char id=56 x=142 y=0 width=6 height=7 xoffset=-2 yoffset=6 xadvance=4 page=0 chnl=0
char id=57 x=149 y=0 width=6 height=7 xoffset=-2 yoffset=6 xadvance=4 page=0 chnl=0
char id=58 x=529 y=0 width=4 height=6 xoffset=-2 yoffset=7 xadvance=2 page=0 chnl=0
char id=59 x=488 y=0 width=4 height=7 xoffset=-2 yoffset=7 xadvance=2 page=0 chnl=0
char id=60 x=517 y=0 width=5 height=6 xoffset=-2 yoffset=7 xadvance=3 page=0 chnl=0
char id=61 x=510 y=0 width=6 height=6 xoffset=-2 yoffset=7 xadvance=4 page=0 chnl=0
char id=62 x=523 y=0 width=5 height=6 xoffset=-2 yoffset=7 xadvance=3 page=0 chnl=0
char id=63 x=156 y=0 width=6 height=7 xoffset=-2 yoffset=6 xadvance=4 page=0 chnl=0
char id=65 x=163 y=0 width=6 height=7 xoffset=-2 yoffset=6 xadvance=4 page=0 chnl=0
char id=66 x=170 y=0 width=6 height=7 xoffset=-2 yoffset=6 xadvance=4 page=0 chnl=0
char id=67 x=177 y=0 width=6 height=7 xoffset=-2 yoffset=6 xadvance=4 page=0 chnl=0
char id=68 x=184 y=0 width=6 height=7 xoffset=-2 yoffset=6 xadvance=4 page=0 chnl=0
char id=69 x=191 y=0 width=6 height=7 xoffset=-2 yoffset=6 xadvance=4 page=0 chnl=0
char id=70 x=198 y=0 width=6 height=7 xoffset=-2 yoffset=6 xadvance=4 page=0 chnl=0
char id=71 x=205 y=0 width=6 height=7 xoffset=-2 yoffset=6 xadvance=4 page=0 chnl=0
char id=72 x=212 y=0 width=6 height=7 xoffset=-2 yoffset=6 xadvance=4 page=0 chnl=0
char id=73 x=493 y=0 width=4 height=7 xoffset=-2 yoffset=6 xadvance=2 page=0 chnl=0
char id=74 x=219 y=0 width=6 height=7 xoffset=-2 yoffset=6 xadvance=4 page=0 chnl=0
char id=75 x=226 y=0 width=6 height=7 xoffset=-2 yoffset=6 xadvance=4 page=0 chnl=0
char id=76 x=233 y=0 width=6 height=7 xoffset=-2 yoffset=6 xadvance=4 page=0 chnl=0
char id=77 x=57 y=0 width=8 height=7 xoffset=-2 yoffset=6 xadvance=6 page=0 chnl=0
char id=78 x=240 y=0 width=6 height=7 xoffset=-2 yoffset=6 xadvance=4 page=0 chnl=0
char id=79 x=247 y=0 width=6 height=7 xoffset=-2 yoffset=6 xadvance=4 page=0 chnl=0
char id=80 x=254 y=0 width=6 height=7 xoffset=-2 yoffset=6 xadvance=4 page=0 chnl=0
char id=81 x=0 y=0 width=6 height=8 xoffset=-2 yoffset=6 xadvance=4 page=0 chnl=0
char id=82 x=261 y=0 width=6 height=7 xoffset=-2 yoffset=6 xadvance=4 page=0 chnl=0
char id=83 x=268 y=0 width=6 height=7 xoffset=-2 yoffset=6 xadvance=4 page=0 chnl=0
char id=84 x=275 y=0 width=6 height=7 xoffset=-2 yoffset=6 xadvance=4 page=0 chnl=0
char id=85 x=282 y=0 width=6 height=7 xoffset=-2 yoffset=6 xadvance=4 page=0 chnl=0
char id=86 x=289 y=0 width=6 height=7 xoffset=-2 yoffset=6 xadvance=4 page=0 chnl=0
char id=87 x=66 y=0 width=8 height=7 xoffset=-2 yoffset=6 xadvance=6 page=0 chnl=0
char id=88 x=296 y=0 width=6 height=7 xoffset=-2 yoffset=6 xadvance=4 page=0 chnl=0
char id=89 x=303 y=0 width=6 height=7 xoffset=-2 yoffset=6 xadvance=4 page=0 chnl=0
char id=90 x=310 y=0 width=6 height=7 xoffset=-2 yoffset=6 xadvance=4 page=0 chnl=0
char id=91 x=40 y=0 width=5 height=8 xoffset=-2 yoffset=6 xadvance=3 page=0 chnl=0
char id=93 x=46 y=0 width=5 height=8 xoffset=-2 yoffset=6 xadvance=3 page=0 chnl=0
char id=94 x=541 y=0 width=6 height=5 xoffset=-2 yoffset=6 xadvance=4 page=0 chnl=0
char id=95 x=571 y=0 width=6 height=4 xoffset=-2 yoffset=10 xadvance=4 page=0 chnl=0
char id=96 x=548 y=0 width=5 height=5 xoffset=-2 yoffset=6 xadvance=3 page=0 chnl=0
char id=97 x=317 y=0 width=6 height=7 xoffset=-2 yoffset=6 xadvance=4 page=0 chnl=0
char id=98 x=324 y=0 width=6 height=7 xoffset=-2 yoffset=6 xadvance=4 page=0 chnl=0
char id=99 x=331 y=0 width=6 height=7 xoffset=-2 yoffset=6 xadvance=4 page=0 chnl=0
char id=100 x=338 y=0 width=6 height=7 xoffset=-2 yoffset=6 xadvance=4 page=0 chnl=0
char id=101 x=345 y=0 width=6 height=7 xoffset=-2 yoffset=6 xadvance=4 page=0 chnl=0
char id=102 x=352 y=0 width=6 height=7 xoffset=-2 yoffset=6 xadvance=4 page=0 chnl=0
char id=103 x=359 y=0 width=6 height=7 xoffset=-2 yoffset=6 xadvance=4 page=0 chnl=0
char id=104 x=366 y=0 width=6 height=7 xoffset=-2 yoffset=6 xadvance=4 page=0 chnl=0
char id=105 x=498 y=0 width=4 height=7 xoffset=-2 yoffset=6 xadvance=2 page=0 chnl=0
char id=106 x=373 y=0 width=6 height=7 xoffset=-2 yoffset=6 xadvance=4 page=0 chnl=0
char id=107 x=380 y=0 width=6 height=7 xoffset=-2 yoffset=6 xadvance=4 page=0 chnl=0
char id=108 x=387 y=0 width=6 height=7 xoffset=-2 yoffset=6 xadvance=4 page=0 chnl=0
char id=109 x=75 y=0 width=8 height=7 xoffset=-2 yoffset=6 xadvance=6 page=0 chnl=0
char id=110 x=394 y=0 width=6 height=7 xoffset=-2 yoffset=6 xadvance=4 page=0 chnl=0
char id=111 x=401 y=0 width=6 height=7 xoffset=-2 yoffset=6 xadvance=4 page=0 chnl=0
char id=112 x=408 y=0 width=6 height=7 xoffset=-2 yoffset=6 xadvance=4 page=0 chnl=0
char id=113 x=7 y=0 width=6 height=8 xoffset=-2 yoffset=6 xadvance=4 page=0 chnl=0
char id=114 x=415 y=0 width=6 height=7 xoffset=-2 yoffset=6 xadvance=4 page=0 chnl=0
char id=115 x=422 y=0 width=6 height=7 xoffset=-2 yoffset=6 xadvance=4 page=0 chnl=0
char id=116 x=429 y=0 width=6 height=7 xoffset=-2 yoffset=6 xadvance=4 page=0 chnl=0
char id=117 x=436 y=0 width=6 height=7 xoffset=-2 yoffset=6 xadvance=4 page=0 chnl=0
char id=118 x=443 y=0 width=6 height=7 xoffset=-2 yoffset=6 xadvance=4 page=0 chnl=0
char id=119 x=84 y=0 width=8 height=7 xoffset=-2 yoffset=6 xadvance=6 page=0 chnl=0
char id=120 x=450 y=0 width=6 height=7 xoffset=-2 yoffset=6 xadvance=4 page=0 chnl=0
char id=121 x=457 y=0 width=6 height=7 xoffset=-2 yoffset=6 xadvance=4 page=0 chnl=0
char id=122 x=464 y=0 width=6 height=7 xoffset=-2 yoffset=6 xadvance=4 page=0 chnl=0
char id=123 x=14 y=0 width=6 height=8 xoffset=-2 yoffset=6 xadvance=4 page=0 chnl=0
char id=124 x=52 y=0 width=4 height=8 xoffset=-2 yoffset=6 xadvance=2 page=0 chnl=0
char id=125 x=21 y=0 width=6 height=8 xoffset=-2 yoffset=6 xadvance=4 page=0 chnl=0
kernings count=0
