{
	com.badlogic.gdx.graphics.g2d.BitmapFont:
	{
		default-font: { file: early34.fnt },
		border-font: { file: early34-suddenfell.fnt },
	},
	com.badlogic.gdx.graphics.Color:
	{
		white: { a: 1, b: 1, g: 1, r: 1 },
	},
	com.badlogic.gdx.scenes.scene2d.ui.Label$LabelStyle:
	{
		default: { font: default-font, fontColor: white },
		border: { font: border-font, fontColor: white },
	},
	com.badlogic.gdx.scenes.scene2d.ui.TextField$TextFieldStyle:
	{
	},
	com.badlogic.gdx.scenes.scene2d.ui.Button$ButtonStyle:
	{
		play: { down: btn_play_down , up: btn_play_up },
		back: { down: btn_back_down , up: btn_back_up },
		back_small: { down: btn_back_small_down , up: btn_back_small_up },
		back_wide: { down: btn_back_wide_down, up: btn_back_wide_up },
		exit: { down: btn_exit_down , up: btn_exit_up },
		host: { down: btn_host_down , up: btn_host_up },
		join: { down: btn_join_down , up: btn_join_up },
		join_small: { down: btn_join_small_down , up: btn_join_small_up },
		leave: { down: btn_leave_down , up: btn_leave_up },
		options: { down: btn_options_down , up: btn_options_up },
		start: { down: btn_start_down , up: btn_start_up },
		start_wide: { down: btn_start_wide_down, up: btn_start_wide_up },
		up: { down: btn_up_down , up: btn_up_up },
		down: { down: btn_down_down , up: btn_down_up },
		left: { down: btn_left_down , up: btn_left_up },
		right: { down: btn_right_down , up: btn_right_up },
		point: { down: btn_point_down, up: btn_point_up },
		shoot: { down: btn_shoot_down, up: btn_shoot_up },
	},
	com.badlogic.gdx.scenes.scene2d.ui.Image:
	{
	},
}